rstatsZH - Data Science mit R
…
]

---
## dplyr::select() - Hilfsfunktionen

```r
penguins %>% 
  select(starts_with(match = "BILL",
                     # Ignoriere Gross- und Kleinschreibung
                     ignore.case = TRUE)) # Standardeinstellung
```

```
# A tibble: 344 x 2
  bill_length_mm bill_depth_mm
           <dbl>         <dbl>
1           39.1          18.7
2           39.5          17.4
3           40.3          18  
4           NA            NA  
5           36.7          19.3
6           39.3          20.6
# … with 338 more rows
```
…
## dplyr::relocate() - Spalten verschieben

.footnote[Artwork by [@allison_horst](https://www.allisonhorst.com/)]

---
## dplyr::rename() - Spalten umbennenen

```r
penguins %>% 
  rename(mass = body_mass_g) # neuer name = alter name
```

```
# A tibble: 344 x 8
  species island    bill_length_mm bill_depth_mm flipper_length_…
  <fct>   <fct>              <dbl>         <dbl>            <int>
1 Adelie  Torgersen           39.1          18.7              181
2 Adelie  Torgersen           39.5          17.4              186
3 Adelie  Torgersen           40.3          18                195
4 Adelie  Torgersen           NA            NA                 NA
5 Adelie  Torgersen           36.7          19.3              193
6 Adelie  Torgersen           39.3          20.6              190
# … with 338 more rows, and 3 more variables: mass <int>,
#   sex <fct>, year <int>
```
…
