rstatsZH - Data Science mit R
…
---
## dplyr::select() - Hilfsfunktionen

```r
penguins %>% 
  select(starts_with(match = "BILL",
                     # Ignoriere Gross- und Kleinschreibung
                     ignore.case = TRUE)) # Standardeinstellung
```

```
# A tibble: 344 × 2
  bill_length_mm bill_depth_mm
           <dbl>         <dbl>
1           39.1          18.7
2           39.5          17.4
3           40.3          18  
4           NA            NA  
5           36.7          19.3
6           39.3          20.6
# … with 338 more rows
```
…
## dplyr::relocate() - Spalten verschieben

.footnote[Artwork by [@allison_horst](https://www.allisonhorst.com/)]

---
## dplyr::rename() - Spalten umbennenen

```r
penguins %>% 
  rename(mass = body_mass_g) # neuer name = alter name
```

```
# A tibble: 344 × 8
  species island    bill_leng…¹ bill_…² flipp…³  mass sex    year
  <fct>   <fct>           <dbl>   <dbl>   <int> <int> <fct> <int>
1 Adelie  Torgersen        39.1    18.7     181  3750 male   2007
2 Adelie  Torgersen        39.5    17.4     186  3800 fema…  2007
3 Adelie  Torgersen        40.3    18       195  3250 fema…  2007
4 Adelie  Torgersen        NA      NA        NA    NA <NA>   2007
5 Adelie  Torgersen        36.7    19.3     193  3450 fema…  2007
6 Adelie  Torgersen        39.3    20.6     190  3650 male   2007
# … with 338 more rows, and abbreviated variable names
#   ¹​bill_length_mm, ²​bill_depth_mm, ³​flipper_length_mm
```
…
