rstatsZH - Data Science mit R
…
.pull-right[

```
# A tibble: 20 x 4
   Jahr  Total Differenz Veraenderung
  <dbl>  <dbl>     <dbl> <chr>       
1  2000 216840        NA <NA>        
2  2001 219626      2786 Zunahme     
3  2002 226239      6613 Zunahme     
4  2003 229225      2986 Zunahme     
5  2004 227999     -1226 Abnahme     
6  2005 229669      1670 Zunahme     
# … with 14 more rows
```
…
