rstatsZH - Data Science mit R
…
## Fehlende Daten ergänzen

```r
professions %>% 
  left_join(dates) %>% 
  mutate(birth_year = case_when( 
    name == "Ada Lovelace" ~ 1815, # looked up dates on Wikipedia
    name == "Marie Curie" ~ 1867,
    TRUE ~ birth_year
  ))
```

```
# A tibble: 10 × 4
  name              profession            birth_year death_year
  <chr>             <chr>                      <dbl>      <dbl>
1 Ada Lovelace      Mathematician               1815         NA
2 Marie Curie       Physicist and Chemist       1867         NA
3 Janaki Ammal      Botanist                    1897       1984
4 Chien-Shiung Wu   Physicist                   1912       1997
5 Katherine Johnson Mathematician               1918       2020
6 Rosalind Franklin Chemist                     1920       1958
7 Vera Rubin        Astronomer                  1928       2016
# ℹ 3 more rows
```
…
