rstatsZH - Data Science mit R
…
---
# Regeln für `{dplyr}` Funktionen

1. Das erste Argument ist immer ein Dataframe (genau wie bei ggplot)
2. Die folgenden Argumente geben an was mit dem Dataframe gemacht werden soll
3. Geben immer einen Dataframe zurück
4. Ändern nichts an Ort und Stelle

```r
filter(.data = penguins, species == "Adelie")
```

```
# A tibble: 152 x 8
  species island    bill_length_mm bill_depth_mm flipper_length_…
  <fct>   <fct>              <dbl>         <dbl>            <int>
1 Adelie  Torgersen           39.1          18.7              181
2 Adelie  Torgersen           39.5          17.4              186
3 Adelie  Torgersen           40.3          18                195
4 Adelie  Torgersen           NA            NA                 NA
5 Adelie  Torgersen           36.7          19.3              193
6 Adelie  Torgersen           39.3          20.6              190
# … with 146 more rows, and 3 more variables: body_mass_g <int>,
#   sex <fct>, year <int>
```
…
