rstatsZH - Data Science mit R
…
1. Datenbank Verbindung: Code-chunk mit `sql connection=con` starten
2. Daten Output: Resultierende Daten mit `output.var = "NAME"` als Objekt im Environment speichern
3. SQL Code schreiben

<img src="img/sql-chunk-output.png" width="100%" style="display: block; margin: auto;" />

---
# SQL Query - Mit Daten weiter arbeiten

1. Objekt mit Funktion `as_tibble()` in einen Tibble umwandeln

<img src="img/r-chunk.png" width="100%" style="display: block; margin: auto;" />

```
# A tibble: 39 x 3
  film_id title             length
    <int> <chr>              <int>
1      24 ANALYZE HOOSIERS     181
2      50 BAKED CLEOPATRA      182
3     128 CATCH AMISTAD        183
4     141 CHICAGO NORTH        185
5     180 CONSPIRACY SPIRIT    184
6     182 CONTROL ANTHEM       185
# … with 33 more rows
```
…
---
# dbplyr - Resultierende Daten aus Datenbank holen

```r
film_tab %>% 
   select(film_id, title, length) %>% 
   filter(length > 180) %>% 
*  collect()
```

```
# A tibble: 39 x 3
  film_id title             length
    <int> <chr>              <int>
1      24 ANALYZE HOOSIERS     181
2      50 BAKED CLEOPATRA      182
3     128 CATCH AMISTAD        183
4     141 CHICAGO NORTH        185
5     180 CONSPIRACY SPIRIT    184
6     182 CONTROL ANTHEM       185
# … with 33 more rows
```
…
