rstatsZH - Data Science mit R
…
???
Daten kommen aus dem Discover Magazine. Daten aus dem Artikel herausgeholt. 

---
## Inputs - Drei Dataframes

.panelset[

.panel[.panel-name[professions]

```
# A tibble: 10 x 2
  name              profession           
  <chr>             <chr>                
1 Ada Lovelace      Mathematician        
2 Marie Curie       Physicist and Chemist
3 Janaki Ammal      Botanist             
4 Chien-Shiung Wu   Physicist            
5 Katherine Johnson Mathematician        
6 Rosalind Franklin Chemist              
# … with 4 more rows
```
]

.panel[.panel-name[dates]

```
# A tibble: 8 x 3
  name              birth_year death_year
  <chr>                  <dbl>      <dbl>
1 Janaki Ammal            1897       1984
2 Chien-Shiung Wu         1912       1997
3 Katherine Johnson       1918       2020
4 Rosalind Franklin       1920       1958
5 Vera Rubin              1928       2016
6 Gladys West             1930         NA
# … with 2 more rows
```
]

.panel[.panel-name[works]

```
# A tibble: 9 x 2
  name           known_for                                       
  <chr>          <chr>                                           
1 Ada Lovelace   first computer algorithm                        
2 Marie Curie    theory of radioactivity,  discovery of elements…
3 Janaki Ammal   hybrid species, biodiversity protection         
4 Chien-Shiung … confim and refine theory of radioactive beta de…
5 Katherine Joh… calculations of orbital mechanics critical to s…
6 Vera Rubin     existence of dark matter                        
# … with 3 more rows
```
…
