rstatsZH - Data Science mit R
…
Stetige Daten sind numerische Variablen, die zwischen zwei beliebigen Werten eine unendliche Anzahl von Werten aufweisen. Stetige Variablen können aus numerischen oder Datums-/Uhrzeitwerten bestehen. Beispiel: die Länge eines Teils oder Datum und Uhrzeit eines Zahlungseingangs

Kategoriale Variablen umfassen eine endliche Anzahl von Kategorien oder eindeutigen Gruppen. Kategoriale Daten müssen nicht zwangsläufig eine logische Reihenfolge aufweisen. Zu den kategorialen Prädiktoren zählen beispielsweise Geschlecht, Materialtyp und Zahlungsmethode

---
# Variablen Typen - Penguins

```r
penguins
```

```
# A tibble: 344 × 8
  species island    bill_length_mm bill_depth_mm flipper_length_…
  <fct>   <fct>              <dbl>         <dbl>            <int>
1 Adelie  Torgersen           39.1          18.7              181
2 Adelie  Torgersen           39.5          17.4              186
3 Adelie  Torgersen           40.3          18                195
4 Adelie  Torgersen           NA            NA                 NA
5 Adelie  Torgersen           36.7          19.3              193
6 Adelie  Torgersen           39.3          20.6              190
# … with 338 more rows, and 3 more variables: body_mass_g <int>,
#   sex <fct>, year <int>
```
…
