rstatsZH - Data Science mit R
…
- `read_excel()` - read xls or xlsx files
]

---
## Daten lesen

```r
treibhaus <- read_csv("data/ugz_treibhausgasbilanz.csv")
treibhaus
```

```
# A tibble: 27 x 9
   Jahr Strom Kerosin Diesel Benzin Holz_UW_BG_SK Fernwaerme
  <dbl> <dbl>   <dbl>  <dbl>  <dbl>         <dbl>      <dbl>
1  1990 0.324   0.638  0.418   1.09         0.021      0.228
2  1991 0.292   0.614  0.415   1.08         0.02       0.227
3  1992 0.263   0.637  0.418   1.08         0.02       0.229
4  1993 0.243   0.651  0.419   1.09         0.02       0.232
5  1994 0.229   0.661  0.416   1.10         0.02       0.234
6  1995 0.242   0.689  0.415   1.10         0.02       0.237
# … with 21 more rows, and 2 more variables: Erdgas <dbl>,
#   Heizoel_EL <dbl>
```
…
write_csv(x = fussball_weltmeister, file = "data/fussball_weltmeister.csv")
```

---
## Die Datei wieder einleisen

```r
read_csv("data/fussball_weltmeister.csv")
```

```
# A tibble: 8 x 3
   jahr weltmeisterschaft titeltraeger
  <dbl> <chr>             <chr>       
1  2018 Männer            Frankreich  
2  2014 Männer            Deutschland 
3  2010 Männer            Spanien     
4  2006 Männer            Italien     
5  2019 Frauen            USA         
6  2015 Frauen            USA         
# … with 2 more rows
```
…
--

```r
dat <- dat %>% 
   mutate(alter = case_when(
      alter == "five" ~ "5",  # Wenn "alter" gleich zwanzig dann
      TRUE ~ alter)) %>% # Sonst "alter"
   mutate(alter = as.numeric(alter))
```

--

```
# A tibble: 10 x 4
     id name     alter bewertung           
  <dbl> <chr>    <dbl> <chr>               
1     1 <NA>        46 trifft nicht zu     
2     2 Ellen       14 trifft zu           
3    NA Tilde       NA trifft eher zu      
4     4 Lorraine    39 teils-teils         
5     5 Juan        91 trifft eher nicht zu
# … with 5 more rows
```
…
dat_clean <- read_csv("data/data-na.csv", 
                      na = c("NA", ".", "9999", "Not applicable")) %>% 
   mutate(alter = case_when(
      alter == "five" ~ "5",  # Wenn "alter" gleich zwanzig dann
      TRUE ~ alter)) %>% # Sonst "alter"
   mutate(alter = as.numeric(alter)) %>% 
   mutate(bewertung = fct_relevel(bewertung, vek_bewertung_lvl))

dat_clean %>% 
   print(n = 3)
```

```
# A tibble: 10 x 4
     id name  alter bewertung      
  <dbl> <chr> <dbl> <fct>          
1     1 <NA>     46 trifft nicht zu
2     2 Ellen    14 trifft zu      
3    NA Tilde    NA trifft eher zu 
# … with 7 more rows
```

---
# Daten schreiben und wieder lesen

```
# A tibble: 10 x 4
     id name     alter bewertung           
  <dbl> <chr>    <dbl> <chr>               
1     1 <NA>        46 trifft nicht zu     
2     2 Ellen       14 trifft zu           
3    NA Tilde       NA trifft eher zu      
4     4 Lorraine    39 teils-teils         
5     5 Juan        91 trifft eher nicht zu
6     6 Anush       63 trifft eher nicht zu
# … with 4 more rows
```
…
- Zwischenergebnisse als CSV zu speichern ist unzuerverlässig, wenn bestimmte Variablen Typen beibehalten werden sollen
- `read_csv()` kann nicht wissen welche Level eine Faktor Variable hat
- Eine gute Alternative sind RDS-Dateien 
- ein R-internes Dateiformat

```r
write_rds(dat_clean, file = "data/data-bewertung-clean.rds")
dat_clean_rds <- read_rds(file = "data/data-bewertung-clean.rds")

dat_clean_rds
```

```
# A tibble: 10 x 4
     id name     alter bewertung           
  <dbl> <chr>    <dbl> <fct>               
1     1 <NA>        46 trifft nicht zu     
2     2 Ellen       14 trifft zu           
3    NA Tilde       NA trifft eher zu      
4     4 Lorraine    39 teils-teils         
5     5 Juan        91 trifft eher nicht zu
6     6 Anush       63 trifft eher nicht zu
# … with 4 more rows
```
…
1. Datenbank Verbindung: Code-chunk mit `sql connection=con` starten
2. Daten Output: Resultierende Daten mit `output.var = "NAME"` als Objekt im Environment speichern
3. SQL Code schreiben

<img src="img/sql-chunk-output.png" width="100%" style="display: block; margin: auto;" />

---
# SQL Query - Mit Daten weiter arbeiten

1. Objekt als mit Funktion `as_tibble()` in einen Tibble umwandeln

<img src="img/r-chunk.png" width="100%" style="display: block; margin: auto;" />

```
# A tibble: 39 x 3
  film_id title             length
    <int> <chr>              <int>
1      24 ANALYZE HOOSIERS     181
2      50 BAKED CLEOPATRA      182
3     128 CATCH AMISTAD        183
4     141 CHICAGO NORTH        185
5     180 CONSPIRACY SPIRIT    184
6     182 CONTROL ANTHEM       185
# … with 33 more rows
```
…
---
# dbplyr - Resultierende Daten aus Datenbank holen

```r
film_tab %>% 
   select(film_id, title, length) %>% 
   filter(length > 180) %>% 
*  collect()
```

```
# A tibble: 39 x 3
  film_id title             length
    <int> <chr>              <int>
1      24 ANALYZE HOOSIERS     181
2      50 BAKED CLEOPATRA      182
3     128 CATCH AMISTAD        183
4     141 CHICAGO NORTH        185
5     180 CONSPIRACY SPIRIT    184
6     182 CONTROL ANTHEM       185
# … with 33 more rows
```
…
